simulation/qsim/multiplier_v.msim.vcd
$comment
	File created using the following command:
		vcd file multiplier_v.msim.vcd -direction
$end
$date
	Wed Nov 27 06:20:34 2024
$end
$version
	ModelSim Version 10.1d
$end
$timescale
	1ps
$end
$scope module multiplier_v_vlg_vec_tst $end
$var reg 1 ! pin_name1 $end
$var reg 1 " pin_name2 $end
$var reg 1 # pin_name3 $end
$var reg 1 $ pin_name4 $end
$var reg 1 % pin_name5 $end
$var reg 1 & pin_name6 $end
$var reg 1 ' pin_name7 $end
$var reg 1 ( pin_name8 $end
$var wire 1 ) pin_name9 $end
$var wire 1 * pin_name10 $end
$var wire 1 + pin_name11 $end
$var wire 1 , pin_name12 $end
$var wire 1 - pin_name13 $end
$var wire 1 . pin_name14 $end
$var wire 1 / pin_name15 $end
$var wire 1 0 pin_name16 $end
$var wire 1 1 sampler $end
$scope module i1 $end
$var wire 1 2 gnd $end
$var wire 1 3 vcc $end
$var wire 1 4 unknown $end
$var tri1 1 5 devclrn $end
$var tri1 1 6 devpor $end
$var tri1 1 7 devoe $end
$var wire 1 8 inst2|FA02|Cout~0_combout $end
$var wire 1 9 inst2|FA02|Cout~1_combout $end
$var wire 1 : inst|A3B1~combout $end
$var wire 1 ; pin_name5~combout $end
$var wire 1 < pin_name1~combout $end
$var wire 1 = inst|A0B0~combout $end
$var wire 1 > pin_name6~combout $end
$var wire 1 ? pin_name2~combout $end
$var wire 1 @ inst2|FA01|Sum~0_combout $end
$var wire 1 A inst|A1B1~combout $end
$var wire 1 B pin_name3~combout $end
$var wire 1 C inst2|FA01|Cout~0_combout $end
$var wire 1 D inst2|FA02|Sum~0_combout $end
$var wire 1 E pin_name7~combout $end
$var wire 1 F inst2|FA02|Sum~1_combout $end
$var wire 1 G pin_name8~combout $end
$var wire 1 H inst|A1B2~combout $end
$var wire 1 I inst2|FA21|Sum~0_combout $end
$var wire 1 J inst2|FA11|Cout~0_combout $end
$var wire 1 K inst2|FA12|Sum~combout $end
$var wire 1 L inst2|FA03|Sum~0_combout $end
$var wire 1 M inst2|FA12|Cout~0_combout $end
$var wire 1 N inst|A1B3~combout $end
$var wire 1 O inst|A2B2~combout $end
$var wire 1 P inst|A2B1~combout $end
$var wire 1 Q inst2|FA21|Cout~0_combout $end
$var wire 1 R inst2|FA22|Sum~0_combout $end
$var wire 1 S inst2|FA03|Cout~0_combout $end
$var wire 1 T inst2|FA03|Cout~1_combout $end
$var wire 1 U inst2|FA13|Sum~combout $end
$var wire 1 V inst|A2B3~combout $end
$var wire 1 W inst2|FA32|Sum~2_combout $end
$var wire 1 X inst2|FA22|Cout~0_combout $end
$var wire 1 Y inst2|FA13|Cout~0_combout $end
$var wire 1 Z inst2|FA23|Sum~combout $end
$var wire 1 [ pin_name4~combout $end
$var wire 1 \ inst2|FA23|Cout~0_combout $end
$var wire 1 ] inst|A3B2~combout $end
$var wire 1 ^ inst2|FA32|Cout~0_combout $end
$var wire 1 _ inst2|FA33|Sum~0_combout $end
$var wire 1 ` inst2|FA33|Cout~0_combout $end
$upscope $end
$upscope $end
$enddefinitions $end
#0
$dumpvars
0!
0"
0#
0$
0%
0&
0'
0(
0)
0*
0+
0,
0-
0.
0/
00
x1
02
13
x4
15
16
17
08
09
0:
0;
0<
0=
0>
0?
0@
0A
0B
0C
0D
0E
0F
0G
0H
0I
0J
0K
0L
0M
0N
0O
0P
0Q
0R
0S
0T
0U
0V
0W
0X
0Y
0Z
0[
0\
0]
0^
0_
0`
$end
#40000
1(
1G
01
#80000
1'
0(
1E
0G
11
#120000
1(
1G
01
#160000
1&
0'
0(
1>
0E
0G
11
#200000
1(
1G
01
#240000
1'
0(
1E
0G
11
#280000
1(
1G
01
#320000
1%
0&
0'
0(
1;
0>
0E
0G
11
#360000
1(
1G
01
#400000
1'
0(
1E
0G
11
#440000
1(
1G
01
#480000
1&
0'
0(
1>
0E
0G
11
#520000
1(
1G
01
#560000
1'
0(
1E
0G
11
#600000
1(
1G
01
#640000
1$
0%
0&
0'
0(
1[
0;
0>
0E
0G
11
#680000
1(
1G
01
1_
1/
#720000
1'
0(
1E
0G
11
1]
1W
0_
1Z
0/
1.
#760000
1(
1G
01
1_
1/
#800000
1&
0'
0(
1>
0E
0G
11
0W
1R
1:
0]
0_
0Z
1U
0/
0.
1-
#840000
1(
1G
01
1_
1/
#880000
1'
0(
1E
0G
11
1]
1W
0_
1Z
0/
1.
#920000
1(
1G
01
1_
1/
#960000
1%
0&
0'
0(
1;
0>
0E
0G
11
1I
0W
0R
0:
0]
0_
1S
1K
0Z
0U
0/
1L
0.
0-
1,
#1000000
1(
1G
01
1_
1/
#1040000
1'
0(
1E
0G
11
1]
1W
0_
1Z
0/
1.
#1080000
1(
1G
01
1_
1/
#1120000
1&
0'
0(
1>
0E
0G
11
0W
1R
1:
0]
0_
0Z
1U
0/
0.
1-
#1160000
1(
1G
01
1_
1/
#1200000
1'
0(
1E
0G
11
1]
1W
0_
1Z
0/
1.
#1240000
1(
1G
01
1_
1/
#1280000
1#
0$
0%
0&
0'
0(
1B
0[
0;
0>
0E
0G
11
0I
0_
0]
0W
0R
0:
0S
0K
0Z
0U
0/
0L
0.
0-
0,
#1320000
1(
1G
01
1V
1Z
1.
#1360000
1'
0(
1E
0G
11
1O
0V
1R
0Z
1U
0.
1-
#1400000
1(
1G
01
1V
1Z
1.
#1440000
1&
0'
0(
1>
0E
0G
11
1P
1I
0O
0V
1S
1K
0R
0Z
1L
0U
0.
1,
0-
#1480000
1(
1G
01
1V
1Z
1.
#1520000
1'
0(
1E
0G
11
1O
0V
1R
0Z
1U
0.
1-
#1560000
1(
1G
01
1V
1Z
1.
#1600000
1%
0&
0'
0(
1;
0>
0E
0G
11
0I
1D
18
0P
0O
0V
0S
0K
1F
0R
0Z
0L
0U
1+
0.
0,
0-
#1640000
1(
1G
01
1V
1Z
1.
#1680000
1'
0(
1E
0G
11
1O
0V
1R
0Z
1U
0.
1-
#1720000
1(
1G
01
1V
1Z
1.
#1760000
1&
0'
0(
1>
0E
0G
11
1P
1I
0O
0V
1S
1K
0R
0Z
1L
0U
0.
1,
0-
#1800000
1(
1G
01
1V
1Z
1.
#1840000
1'
0(
1E
0G
11
1O
0V
1R
0Z
1U
0.
1-
#1880000
1(
1G
01
1V
1Z
1.
#1920000
1$
0%
0&
0'
0(
1[
0;
0>
0E
0G
11
0I
0D
08
0P
0O
0V
0S
0K
0F
0R
0Z
0L
0U
0+
0.
0,
0-
#1960000
1(
1G
01
1_
1V
1Z
1/
1.
#2000000
1'
0(
1E
0G
11
1]
1W
1O
0_
0V
1R
0/
1U
1-
#2040000
1(
1G
01
1_
1V
1\
0Z
1/
1`
0_
0.
10
0/
#2080000
1&
0'
0(
1>
0E
0G
11
0W
0R
1P
1I
1:
0]
0O
0`
1_
0V
0\
0U
1S
1K
1R
00
1/
0_
1L
1U
0-
0/
1,
1-
#2120000
1(
1G
01
1_
1V
1Z
1/
1.
#2160000
1'
0(
1E
0G
11
1]
1W
1O
0_
0V
1X
0R
0/
1^
0Z
0U
1_
0.
0-
1/
#2200000
1(
1G
01
1`
0_
1V
1Z
10
0/
1.
#2240000
1%
0&
0'
0(
1;
0>
0E
0G
11
1Q
1D
18
0W
1R
0P
0:
0]
0O
0`
1_
0V
0^
0X
1F
1U
0Q
00
1/
0_
0Z
0R
1+
1-
0U
0/
0.
0-
#2280000
1(
1G
01
1_
1V
1Z
1/
1.
#2320000
1'
0(
1E
0G
11
1]
1W
1O
0_
0V
1R
0/
1U
1-
#2360000
1(
1G
01
1_
1V
1\
0Z
1/
1`
0_
0.
10
0/
#2400000
1&
0'
0(
1>
0E
0G
11
0W
0R
1P
0I
1:
0]
0O
0`
1_
0V
0\
0U
1Q
0S
0K
1R
00
1/
0_
1W
0R
0L
1U
0-
1Z
0U
0/
0,
1-
1.
0-
#2440000
1(
1G
01
1_
1V
1\
0Z
1/
1`
0_
0.
10
0/
#2480000
1'
0(
1E
0G
11
1]
0W
1O
0`
1_
0V
1^
0\
1R
00
1/
1U
1-
#2520000
1(
1G
01
1`
0_
1V
1Z
10
0/
1.
#2560000
1"
0#
0$
0%
0&
0'
0(
1?
0B
0[
0;
0>
0E
0G
11
08
0V
0P
0O
0D
0`
1_
0]
0R
0Q
0:
0Z
0F
0^
0U
00
1/
0_
0.
0+
0-
0/
#2600000
1(
1G
01
1N
1U
1-
#2640000
1'
0(
1E
0G
11
1H
0N
1K
0U
1L
0-
1,
#2680000
1(
1G
01
1N
1U
1-
#2720000
1&
0'
0(
1>
0E
0G
11
1A
18
0H
0N
1F
0K
0U
0L
1+
0-
0,
#2760000
1(
1G
01
1N
1U
1-
#2800000
1'
0(
1E
0G
11
1H
0N
1K
0U
1L
0-
1,
#2840000
1(
1G
01
1N
1U
1-
#2880000
1%
0&
0'
0(
1;
0>
0E
0G
11
1@
08
0A
0H
0N
0F
0K
0U
1*
0L
0+
0-
0,
#2920000
1(
1G
01
1N
1U
1-
#2960000
1'
0(
1E
0G
11
1H
0N
1K
0U
1L
0-
1,
#3000000
1(
1G
01
1N
1U
1-
#3040000
1&
0'
0(
1>
0E
0G
11
1A
0H
0N
1F
0K
0U
0L
1+
0-
0,
#3080000
1(
1G
01
1N
1U
1-
#3120000
1'
0(
1E
0G
11
1H
0N
1K
0U
1L
0-
1,
#3160000
1(
1G
01
1N
1U
1-
#3200000
1$
0%
0&
0'
0(
1[
0;
0>
0E
0G
11
0@
0A
0H
0N
0F
0K
0U
0*
0L
0+
0-
0,
#3240000
1(
1G
01
1_
1N
1U
1/
1-
#3280000
1'
0(
1E
0G
11
1]
1W
1H
0_
0N
1Z
1K
0U
0/
1L
1.
0-
1,
#3320000
1(
1G
01
1_
1N
1U
1/
1-
#3360000
1&
0'
0(
1>
0E
0G
11
0W
1R
1A
1:
18
0]
0H
0_
0N
0Z
1F
0K
0/
0L
0.
1+
0,
#3400000
1(
1G
01
1_
1N
1Y
0U
1/
1Z
0-
1.
#3440000
1'
0(
1E
0G
11
1]
1W
1H
0_
0N
1\
0Z
1K
0Y
1U
0/
1_
1L
0\
1Z
0.
1-
0_
1/
1,
1.
0/
#3480000
1(
1G
01
1_
1N
1Y
0U
1/
1\
0Z
0-
1`
0_
0.
10
0/
#3520000
1%
0&
0'
0(
1;
0>
0E
0G
11
1I
1@
08
0W
0R
0A
0:
0]
0H
0`
1_
0N
1S
0\
1Z
0Y
0F
1*
00
1/
0_
0Z
1.
0+
0/
0.
#3560000
1(
1G
01
1_
1N
1U
1/
1-
#3600000
1'
0(
1E
0G
11
1]
1W
1H
0_
0N
1Z
1M
0K
0U
0/
1U
0L
1.
0-
1-
0,
#3640000
1(
1G
01
1_
1N
1Y
0U
1/
1\
0Z
0-
1`
0_
0.
10
0/
#3680000
1&
0'
0(
1>
0E
0G
11
0W
1R
1A
1:
0]
0H
0`
1_
0N
0\
1Z
0Y
1F
1X
0M
1K
00
1/
0_
0X
1U
1L
1.
1+
0Z
0/
1-
1,
0.
#3720000
1(
1G
01
1_
1N
1Y
0U
1/
1Z
0-
1.
#3760000
1'
0(
1E
0G
11
1]
1W
1H
0_
0N
1\
0Z
1M
0K
0Y
1U
0/
1_
1X
0U
0L
0\
1Z
0.
1-
1^
0Z
0_
1/
0-
0,
1.
1_
0.
0/
1/
#3800000
1(
1G
01
1`
0_
1N
1U
10
0/
1-
#3840000
1#
0$
0%
0&
0'
0(
1B
0[
0;
0>
0E
0G
11
0I
0`
1_
0]
0W
0R
0:
0@
0A
0H
0N
0S
0M
0^
1Z
0X
0F
00
1/
0*
0U
0_
0Z
1.
0+
0-
0/
0.
#3880000
1(
1G
01
1V
1N
1Z
1U
1.
1-
#3920000
1'
0(
1E
0G
11
1O
1H
0V
0N
1R
1K
0Z
0U
1U
1L
0.
0-
1-
1,
#3960000
1(
1G
01
1V
1N
1Z
1Y
0U
1\
0Z
1.
0-
1_
0.
1/
#4000000
1&
0'
0(
1>
0E
0G
11
1P
1I
1A
18
0O
0H
0V
0N
1S
1F
0R
0\
1Z
0Y
1U
0U
0_
0Z
1+
1.
1-
0-
0/
0.
#4040000
1(
1G
01
1V
1N
1Z
1U
1.
1-
#4080000
1'
0(
1E
0G
11
1O
1H
0V
0N
1R
1M
0K
0Z
0U
1X
0L
0.
0-
1Z
0,
1.
#4120000
1(
1G
01
1V
1N
1\
0Z
1U
1_
0.
1-
1/
#4160000
1%
0&
0'
0(
1;
0>
0E
0G
11
1J
0I
1D
1@
0P
0A
0O
0H
0V
0N
0M
1K
0J
0X
0R
0\
1Z
0U
1*
1L
0S
0K
0Z
0_
1.
0-
0L
1,
0.
0/
0,
#4200000
1(
1G
01
1V
1N
1Z
1U
1.
1-
#4240000
1'
0(
1E
0G
11
1O
1H
0V
0N
1R
1K
0Z
0U
1U
1L
0.
0-
1-
1,
#4280000
1(
1G
01
1V
1N
1Z
1Y
0U
1\
0Z
1.
0-
1_
0.
1/
#4320000
1&
0'
0(
1>
0E
0G
11
1P
1I
1A
0O
0H
0V
0N
1S
1J
0F
0R
0\
1Z
0Y
1U
0S
1Q
0K
0U
0_
0Z
0+
1.
1-
1R
0L
0-
0/
0.
1U
0,
1-
#4360000
1(
1G
01
1V
1N
1Z
1Y
0U
1\
0Z
1.
0-
1_
0.
1/
#4400000
1'
0(
1E
0G
11
1O
1H
0V
0N
1X
0R
1K
0\
1Z
0Y
1U
0U
1L
0_
1.
1-
0-
1,
0/
#4440000
1(
1G
01
1V
1N
1\
0Z
1U
1_
0.
1-
1/
#4480000
1$
0%
0&
0'
0(
1[
0;
0>
0E
0G
11
0I
0J
0D
0@
08
0P
0A
0O
0H
0V
0N
0K
0Q
0X
1R
0\
1Z
0U
0*
0L
0R
0Z
1U
0_
1.
0-
0U
0,
0.
1-
0/
0-
#4520000
1(
1G
01
1_
1V
1N
1Z
1U
1/
1.
1-
#4560000
1'
0(
1E
0G
11
1]
1W
1O
1H
0_
0V
0N
1R
1K
0U
0/
1U
1L
0-
1-
1,
#4600000
1(
1G
01
1_
1V
1N
1\
0Z
1Y
0U
1/
1`
0_
1Z
0.
0-
10
0/
1.
#4640000
1&
0'
0(
1>
0E
0G
11
0W
0R
1P
1I
1A
1:
18
0]
0O
0H
0`
1_
0V
0N
0\
0Y
1S
1F
1R
00
1/
0_
0Z
1U
1+
0/
0.
1-
#4680000
1(
1G
01
1_
1V
1N
1Z
1Y
0U
1/
1\
0Z
1.
0-
1`
0_
0.
10
0/
#4720000
1'
0(
1E
0G
11
1]
1W
1O
1H
0`
1_
0V
0N
1X
0R
1M
0K
0Y
1U
00
1/
1^
0\
0L
1-
0,
#4760000
1(
1G
01
1`
0_
1V
1N
1Z
1Y
0U
10
0/
1\
0Z
1.
0-
1_
0.
1/
#4800000
1%
0&
0'
0(
1;
0>
0E
0G
11
1Q
1J
1D
1@
0W
1R
0P
0A
0:
0]
0O
0H
0_
0V
0N
0^
0S
0M
0Y
0J
1*
0/
0`
1_
0X
1U
0\
1Z
1S
0Q
1K
0Z
0_
0R
1L
00
1/
1-
1.
0U
0.
0/
1,
0-
#4840000
1(
1G
01
1_
1V
1N
1Z
1U
1/
1.
1-
#4880000
1'
0(
1E
0G
11
1]
1W
1O
1H
0_
0V
0N
1R
1M
0K
0U
0/
1X
0L
0-
1^
0Z
0,
1_
0.
1/
#4920000
1(
1G
01
1`
0_
1V
1N
1Z
1U
10
0/
1.
1-
#4960000
1&
0'
0(
1>
0E
0G
11
0W
0R
1P
0I
1A
1:
0]
0O
0H
0`
1_
0V
0N
1Q
0S
0M
1J
0F
0^
1R
00
1/
1^
0X
1W
0R
1S
1K
0_
0+
1_
0^
0U
1L
0/
0_
1/
0-
1,
0/
#5000000
1(
1G
01
1_
1V
1N
1\
0Z
1U
1/
1`
0_
0.
1-
10
0/
#5040000
1'
0(
1E
0G
11
1]
0W
1O
1H
0`
1_
0V
0N
1^
0\
1R
1M
0K
0U
00
1/
1X
0L
0-
1Z
0,
1.
#5080000
1(
1G
01
1`
0_
1V
1N
1\
0Z
1U
10
0/
1_
0.
1-
1/
#5120000
1!
0"
0#
0$
0%
0&
0'
0(
1<
0?
0B
0[
0;
0>
0E
0G
11
0@
0N
0H
0A
08
0V
0P
0O
0J
0D
0_
0]
0R
0:
0M
0\
1Z
0Q
1R
0S
0^
0*
0/
0X
0`
0R
1.
0Z
0U
00
0.
0-
#5160000
1(
1G
01
1L
1,
#5200000
1'
0(
1E
0G
11
1F
0L
1+
0,
#5240000
1(
1G
01
1L
1,
#5280000
1&
0'
0(
1>
0E
0G
11
1@
0F
0L
1*
0+
0,
#5320000
1(
1G
01
1L
1,
#5360000
1'
0(
1E
0G
11
1F
0L
1+
0,
#5400000
1(
1G
01
1L
1,
#5440000
1%
0&
0'
0(
1;
0>
0E
0G
11
0@
1=
0F
0L
0*
1)
0+
0,
#5480000
1(
1G
01
1L
1,
#5520000
1'
0(
1E
0G
11
1F
0L
1+
0,
#5560000
1(
1G
01
1L
1,
#5600000
1&
0'
0(
1>
0E
0G
11
1@
0F
0L
1*
0+
0,
#5640000
1(
1G
01
1L
1,
#5680000
1'
0(
1E
0G
11
1F
0L
1+
0,
#5720000
1(
1G
01
1L
1,
#5760000
1$
0%
0&
0'
0(
1[
0;
0>
0E
0G
11
0@
0=
0F
0L
0*
0)
0+
0,
#5800000
1(
1G
01
1_
1L
1/
1,
#5840000
1'
0(
1E
0G
11
1]
1W
1F
0_
0L
1Z
1+
0/
0,
1.
#5880000
1(
1G
01
1_
1L
1/
1,
#5920000
1&
0'
0(
1>
0E
0G
11
0W
1R
1@
1:
0]
0F
0_
0L
0Z
1U
1*
0+
0/
0,
0.
1-
#5960000
1(
1G
01
1_
1L
1/
1,
#6000000
1'
0(
1E
0G
11
1]
1W
1F
0_
0L
1Z
1+
0/
0,
1.
#6040000
1(
1G
01
1_
1L
1/
1,
#6080000
1%
0&
0'
0(
1;
0>
0E
0G
11
1I
0@
1=
0W
0R
0:
0]
0F
0_
0L
1S
1K
0Z
0U
0*
1)
0+
0/
0,
1L
0.
0-
1,
#6120000
1(
1G
01
1_
1T
0L
1U
1/
0,
1-
#6160000
1'
0(
1E
0G
11
1]
1W
1F
0_
0T
1L
1Z
0U
1+
0/
1,
1.
0-
#6200000
1(
1G
01
1_
1T
0L
1U
1/
0,
1-
#6240000
1&
0'
0(
1>
0E
0G
11
0W
1R
1@
1:
0]
0F
0_
0T
1L
0Z
1*
0+
0/
1,
0.
#6280000
1(
1G
01
1_
1T
0L
1Y
0U
1/
0,
1Z
0-
1.
#6320000
1'
0(
1E
0G
11
1]
1W
1F
0_
0T
1L
1\
0Z
0Y
1U
1+
0/
1,
1_
0\
1Z
0.
1-
0_
1/
1.
0/
#6360000
1(
1G
01
1_
1T
0L
1Y
0U
1/
0,
1\
0Z
0-
1`
0_
0.
10
0/
#6400000
1#
0$
0%
0&
0'
0(
1B
0[
0;
0>
0E
0G
11
0I
0`
1_
0]
0W
0R
0:
0@
0=
0F
0T
1L
0S
0K
0\
1Z
0Y
00
1/
0*
0)
0+
1,
0L
0_
0Z
1.
0,
0/
0.
#6440000
1(
1G
01
1V
1L
1Z
1,
1.
#6480000
1'
0(
1E
0G
11
1O
1F
0V
0L
1R
0Z
1+
0,
1U
0.
1-
#6520000
1(
1G
01
1V
1L
1Z
1,
1.
#6560000
1&
0'
0(
1>
0E
0G
11
1P
1I
1@
0O
0F
0V
0L
1S
1K
0R
0Z
1*
0+
0,
1L
0U
0.
1,
0-
#6600000
1(
1G
01
1V
1T
0L
1Z
1U
0,
1.
1-
#6640000
1'
0(
1E
0G
11
1O
1F
0V
0T
1L
1R
0Z
0U
1+
1,
1U
0.
0-
1-
#6680000
1(
1G
01
1V
1T
0L
1Z
1Y
0U
0,
1\
0Z
1.
0-
1_
0.
1/
#6720000
1%
0&
0'
0(
1;
0>
0E
0G
11
0I
1D
0@
1=
18
0P
0O
0F
0V
0T
1L
0S
0K
1F
0R
0\
1Z
0Y
1U
0*
1)
0+
1,
0L
0U
0_
0Z
1+
1.
1-
0,
0-
0/
0.
#6760000
1(
1G
01
1V
1L
1Z
1,
1.
#6800000
1'
0(
1E
0G
11
1O
0F
19
0V
0L
1R
1S
1K
0Z
0+
0,
1U
1L
0.
1-
1,
#6840000
1(
1G
01
1V
1T
0L
1Z
1Y
0U
0,
1\
0Z
1.
0-
1_
0.
1/
#6880000
1&
0'
0(
1>
0E
0G
11
1P
1I
1@
0O
1F
09
0V
0T
1L
0R
0\
1Z
0Y
1U
1*
1+
1,
0U
0_
0Z
1.
1-
0-
0/
0.
#6920000
1(
1G
01
1V
1T
0L
1Z
1U
0,
1.
1-
#6960000
1'
0(
1E
0G
11
1O
0F
19
0V
0T
1L
1R
0S
1M
0K
0Z
0U
0+
1,
1X
0L
0.
0-
1Z
0,
1.
#7000000
1(
1G
01
1V
1L
1\
0Z
1,
1_
0.
1/
#7040000
1$
0%
0&
0'
0(
1[
0;
0>
0E
0G
11
0I
0D
0@
0=
08
0P
0O
1F
09
0V
0L
0M
0F
0X
0R
0\
1Z
0*
0)
1+
0,
0Z
0_
0+
1.
0.
0/
#7080000
1(
1G
01
1_
1V
1L
1Z
1/
1,
1.
#7120000
1'
0(
1E
0G
11
1]
1W
1O
1F
0_
0V
0L
1R
1+
0/
0,
1U
1-
#7160000
1(
1G
01
1_
1V
1L
1\
0Z
1/
1,
1`
0_
0.
10
0/
#7200000
1&
0'
0(
1>
0E
0G
11
0W
0R
1P
1I
1@
1:
0]
0O
0F
0`
1_
0V
0L
0\
0U
1S
1K
1R
1*
0+
00
1/
0,
0_
1L
1U
0-
0/
1,
1-
#7240000
1(
1G
01
1_
1V
1T
0L
1Z
1Y
0U
1/
0,
1\
0Z
1.
0-
1`
0_
0.
10
0/
#7280000
1'
0(
1E
0G
11
1]
1W
1O
1F
0`
1_
0V
0T
1L
1X
0R
0Y
1U
1+
00
1/
1,
1^
0\
0U
1-
0-
#7320000
1(
1G
01
1`
0_
1V
1T
0L
1Z
1U
10
0/
0,
1.
1-
#7360000
1%
0&
0'
0(
1;
0>
0E
0G
11
1Q
1D
0@
1=
18
0W
1R
0P
0:
0]
0O
0F
0`
1_
0V
0T
1L
0^
0X
1F
0Q
0*
1)
0+
00
1/
1,
0_
0Z
0R
1+
0U
0/
0.
0-
#7400000
1(
1G
01
1_
1V
1T
0L
1Z
1U
1/
0,
1.
1-
#7440000
1'
0(
1E
0G
11
1]
1W
1O
0F
19
0_
0V
0T
1L
1R
0S
1M
0K
0U
0+
0/
1,
1X
0L
0-
1^
0Z
0,
1_
0.
1/
#7480000
1(
1G
01
1`
0_
1V
1L
1Z
10
0/
1,
1.
#7520000
1&
0'
0(
1>
0E
0G
11
0W
0R
1P
0I
1@
1:
0]
0O
1F
09
0`
1_
0V
0L
1U
1Q
0M
0^
1R
1*
1+
00
1/
0,
1^
0X
1W
0R
0_
1-
1_
0^
0U
0/
0_
1/
0-
0/
#7560000
1(
1G
01
1_
1V
1L
1\
0Z
1/
1,
1`
0_
0.
10
0/
#7600000
1'
0(
1E
0G
11
1]
0W
1O
0F
19
0`
1_
0V
0L
1^
0\
1R
1S
1K
0+
00
1/
0,
1U
1L
1-
1,
#7640000
1(
1G
01
1`
0_
1V
1T
0L
1Z
1Y
0U
10
0/
0,
1\
0Z
1.
0-
1_
0.
1/
#7680000
1"
0#
0$
0%
0&
0'
0(
1?
0B
0[
0;
0>
0E
0G
11
0@
08
0V
0P
0O
0D
0_
0]
0R
0Q
0:
0=
1F
09
0T
1L
0\
1Z
0F
0^
0Y
0S
0K
0*
0/
0)
1+
1,
0`
0Z
0L
1.
0+
00
0.
0,
#7720000
1(
1G
01
1N
1L
1U
1,
1-
#7760000
1'
0(
1E
0G
11
1H
1F
0N
0L
1K
0U
1+
0,
1L
0-
1,
#7800000
1(
1G
01
1T
1N
0L
1Y
0,
1Z
1.
#7840000
1&
0'
0(
1>
0E
0G
11
1A
1@
18
0H
0F
0T
0N
1L
1F
0K
0Y
1*
0+
1,
0L
0Z
1+
0,
0.
#7880000
1(
1G
01
1N
1L
1U
1,
1-
#7920000
1'
0(
1E
0G
11
1H
0F
19
0N
0L
1M
1S
0U
0+
0,
1U
0-
1-
#7960000
1(
1G
01
1N
1L
1Y
0U
1,
1Z
0-
1.
#8000000
1%
0&
0'
0(
1;
0>
0E
0G
11
1=
08
0A
0H
1F
09
0N
0L
0F
0M
0S
0Y
1U
1)
1+
0,
0U
0Z
0+
1-
0-
0.
#8040000
1(
1G
01
1N
1L
1U
1,
1-
#8080000
1'
0(
1E
0G
11
1H
1F
0N
0L
1K
0U
1+
0,
1L
0-
1,
#8120000
1(
1G
01
1T
1N
0L
1Y
0,
1Z
1.
#8160000
1&
0'
0(
1>
0E
0G
11
1C
1A
0@
0H
0F
0T
0N
1L
1J
1D
1F
0K
0Y
0*
0+
1,
1S
1K
0F
0L
0Z
1+
1L
0+
0,
0.
1,
#8200000
1(
1G
01
1T
1N
0L
1Y
0,
1Z
1.
#8240000
1'
0(
1E
0G
11
1H
1F
0T
0N
1L
1M
0K
0Y
1+
1,
1U
0L
0Z
1-
0,
0.
#8280000
1(
1G
01
1N
1L
1Y
0U
1,
1Z
0-
1.
#8320000
1$
0%
0&
0'
0(
1[
0;
0>
0E
0G
11
0C
0=
0A
0H
0F
0N
0L
0J
0D
1F
0M
1K
0Y
1U
0)
0+
0,
0S
0K
0F
0U
1L
0Z
1+
1-
0L
0+
0-
1,
0.
0,
#8360000
1(
1G
01
1_
1N
1L
1U
1/
1,
1-
#8400000
1'
0(
1E
0G
11
1]
1W
1H
1F
0_
0N
0L
1Z
1K
0U
1+
0/
0,
1L
1.
0-
1,
#8440000
1(
1G
01
1_
1T
1N
0L
1Y
1/
0,
1\
0Z
1`
0_
0.
10
0/
#8480000
1&
0'
0(
1>
0E
0G
11
0W
1R
1A
1@
1:
18
0]
0H
0F
0`
1_
0T
0N
1L
0\
1Z
0Y
1U
1F
0K
1*
0+
00
1/
1,
0_
0Z
0L
1.
1-
1+
0/
0.
0,
#8520000
1(
1G
01
1_
1N
1L
1Y
0U
1/
1,
1Z
0-
1.
#8560000
1'
0(
1E
0G
11
1]
1W
1H
0F
19
0_
0N
0L
1\
0Z
1M
1S
0Y
1U
0+
0/
0,
1_
1X
0U
0\
1Z
0.
1-
1^
0Z
0_
1/
0-
1.
1_
0.
0/
1/
#8600000
1(
1G
01
1`
0_
1N
1L
1U
10
0/
1,
1-
#8640000
1%
0&
0'
0(
1;
0>
0E
0G
11
1I
1=
08
0W
0R
0A
0:
0]
0H
1F
09
0`
1_
0N
0L
0M
1K
1Z
0F
0^
0X
1)
1+
00
1/
0,
0U
1L
0_
0Z
1.
0+
0-
1,
0/
0.
#8680000
1(
1G
01
1_
1T
1N
0L
1Y
1/
0,
1Z
1.
#8720000
1'
0(
1E
0G
11
1]
1W
1H
1F
0_
0T
0N
1L
1\
0Z
1M
0K
0Y
1+
0/
1,
1_
1U
0L
0\
1Z
0.
0_
1/
1-
0,
1.
0/
#8760000
1(
1G
01
1_
1N
1L
1Y
0U
1/
1,
1\
0Z
0-
1`
0_
0.
10
0/
#8800000
1&
0'
0(
1>
0E
0G
11
0W
1R
1C
1A
0@
1:
0]
0H
0F
0`
1_
0N
0L
0\
1Z
0Y
1J
1D
1F
1X
0M
1K
0*
0+
00
1/
0,
0_
0S
1Q
0K
0F
0X
1U
1L
1.
1+
1W
0R
0L
0Z
0/
0+
1-
1,
1Z
0U
0,
0.
1.
0-
#8840000
1(
1G
01
1_
1N
1L
1U
1/
1,
1-
#8880000
1'
0(
1E
0G
11
1]
0W
1H
1F
0_
0N
0L
1^
0Z
1K
0U
1+
0/
0,
1_
1L
0.
0-
1/
1,
#8920000
1(
1G
01
1`
0_
1T
1N
0L
1Y
10
0/
0,
1Z
1.
#8960000
1#
0$
0%
0&
0'
0(
1B
0[
0;
0>
0E
0G
11
0I
0`
1_
0]
1R
0Q
0:
0C
0=
0A
0H
0F
0T
0N
1L
1S
0^
0Y
1U
0R
0J
0D
1F
00
1/
0)
0+
1,
0_
0Z
0U
0S
0K
0F
1-
1+
0L
0/
0.
0-
0+
0,
#9000000
1(
1G
01
1V
1N
1L
1Z
1U
1,
1.
1-
#9040000
1'
0(
1E
0G
11
1O
1H
1F
0V
0N
0L
1R
1K
0Z
0U
1+
0,
1U
1L
0.
0-
1-
1,
#9080000
1(
1G
01
1V
1T
1N
0L
1Z
1Y
0,
1\
0Z
1.
1_
0.
1/
#9120000
1&
0'
0(
1>
0E
0G
11
1P
1I
1A
1@
18
0O
0H
0F
0V
0T
0N
1L
1S
1F
0R
0\
1Z
0Y
1*
0+
1,
0U
0_
0Z
1+
1.
0-
0/
0.
#9160000
1(
1G
01
1V
1T
1N
0L
1Z
1Y
0,
1\
0Z
1.
1_
0.
1/
#9200000
1'
0(
1E
0G
11
1O
1H
0F
19
0V
0T
0N
1L
1R
1M
0S
0\
1Z
0Y
0+
1,
1X
0_
0Z
1.
1Z
0/
0.
1.
#9240000
1(
1G
01
1V
1T
1N
0L
1\
0Z
1Y
0,
1_
1Z
0.
1/
1.
#9280000
1%
0&
0'
0(
1;
0>
0E
0G
11
1J
0I
1D
1=
0P
0A
0O
0H
1F
09
0V
0T
0N
1L
1S
0M
0J
0X
0R
0Z
0Y
1)
1+
1,
0S
0K
0\
0.
0L
0_
0,
0/
#9320000
1(
1G
01
1V
1N
1L
1Z
1U
1,
1.
1-
#9360000
1'
0(
1E
0G
11
1O
1H
0F
19
0V
0N
0L
1R
1M
1S
0Z
0U
0+
0,
1X
0.
0-
1Z
1.
#9400000
1(
1G
01
1V
1N
1L
1\
0Z
1U
1,
1_
0.
1-
1/
